<svg xmlns="http://www.w3.org/2000/svg" viewBox="0 0 184 92" width="184" height="92">
	<style>
		tspan { white-space:pre }
		.shp0 { fill: #a800ff } 
	</style>
	<path id="Layer" class="shp0" d="M-0.01 -0.05C-0.01 0.05 -0.01 0.15 -0.01 0.25C-0.01 50.82 40.99 91.82 91.56 91.82C142.13 91.82 183.13 50.82 183.13 0.25C183.13 0.15 183.13 0.05 183.13 -0.05L-0.01 -0.05Z" />
</svg>